{
	"frameDuration":0.25,
	"mode":"loop",
	"useGlobalDrawAndWorldValues":true,
	"drawZeroX":111,
	"drawZeroY":300,
	"worldWidth":2.5,
	"worldHeight":3.5,
	"keys":[
		{
			"frame":"jump-left"
		}
	]
}
